17.09.2015 17:08:06 :	Time now: 17.09.2015 17:08:06.

17.09.2015 17:08:07 :	Time now: 17.09.2015 17:08:07.

17.09.2015 17:08:08 :	Time now: 17.09.2015 17:08:08.

17.09.2015 17:08:17 :	Time now: 17.09.2015 17:08:17.

17.09.2015 17:08:22 :	Time now: 17.09.2015 17:08:22.

17.09.2015 17:08:22 :	Time now: 17.09.2015 17:08:22.

17.09.2015 17:08:43 :	Time now: 17.09.2015 17:08:43.

17.09.2015 17:09:01 :	Time now: 17.09.2015 17:09:01.

17.09.2015 17:09:05 :	Time now: 17.09.2015 17:09:05.

17.09.2015 17:09:07 :	Pobrano dane.	{"$id":"1","<VendingMachineId>k__BackingField":1,"<OwnerId>k__BackingField":1,"<Products>k__BackingField":null,"<Owner>k__BackingField":null,"<Description>k__BackingField":"Obok sklepu spozywczego"}

17.09.2015 17:09:07 :	Pobrano dane.	{"$id":"1","<VendingMachineId>k__BackingField":1,"<OwnerId>k__BackingField":1,"<Products>k__BackingField":null,"<Owner>k__BackingField":null,"<Description>k__BackingField":"Obok sklepu spozywczego"}

17.09.2015 17:09:07 :	Time now: 17.09.2015 17:09:07.

17.09.2015 17:09:47 :	Pobrano dane.	{"$id":"1","<VendingMachineId>k__BackingField":1,"<OwnerId>k__BackingField":1,"<Products>k__BackingField":null,"<Owner>k__BackingField":null,"<Description>k__BackingField":"Obok sklepu spozywczego"}

17.09.2015 17:09:47 :	Time now: 17.09.2015 17:09:47.

17.09.2015 17:09:47 :	Pobrano dane.	{"$id":"1","<VendingMachineId>k__BackingField":1,"<OwnerId>k__BackingField":1,"<Products>k__BackingField":null,"<Owner>k__BackingField":null,"<Description>k__BackingField":"Obok sklepu spozywczego"}

17.09.2015 17:09:47 :	Time now: 17.09.2015 17:09:47.

17.09.2015 17:09:47 :	Pobrano dane.	{"$id":"1","<VendingMachineId>k__BackingField":1,"<OwnerId>k__BackingField":1,"<Products>k__BackingField":null,"<Owner>k__BackingField":null,"<Description>k__BackingField":"Obok sklepu spozywczego"}

17.09.2015 17:09:47 :	Pobrano dane.	{"$id":"1","<VendingMachineId>k__BackingField":1,"<OwnerId>k__BackingField":1,"<Products>k__BackingField":null,"<Owner>k__BackingField":null,"<Description>k__BackingField":"Obok sklepu spozywczego"}

17.09.2015 17:09:52 :	Pobrano dane.	{"$id":"1","<VendingMachineId>k__BackingField":1,"<OwnerId>k__BackingField":1,"<Products>k__BackingField":null,"<Owner>k__BackingField":null,"<Description>k__BackingField":"Obok sklepu spozywczego"}

17.09.2015 17:09:52 :	Pobrano dane.	{"$id":"1","<VendingMachineId>k__BackingField":1,"<OwnerId>k__BackingField":1,"<Products>k__BackingField":null,"<Owner>k__BackingField":null,"<Description>k__BackingField":"Obok sklepu spozywczego"}

17.09.2015 17:09:52 :	Time now: 17.09.2015 17:09:52.

17.09.2015 17:10:08 :	Time now: 17.09.2015 17:10:08.

17.09.2015 17:10:34 :	Time now: 17.09.2015 17:10:34.

17.09.2015 17:11:07 :	Time now: 17.09.2015 17:11:07.

