17.09.2015 17:01:11 :	Time now: 17.09.2015 17:01:11.

17.09.2015 17:01:12 :	Time now: 17.09.2015 17:01:12.

17.09.2015 17:01:13 :	Time now: 17.09.2015 17:01:13.

17.09.2015 17:01:13 :	Pobrano dane.

17.09.2015 17:01:13 :	Pobrano dane.

17.09.2015 17:01:13 :	Pobrano dane.

17.09.2015 17:01:14 :	Time now: 17.09.2015 17:01:14.

17.09.2015 17:01:14 :	Pobrano dane.

17.09.2015 17:01:15 :	Time now: 17.09.2015 17:01:15.

17.09.2015 17:01:15 :	Pobrano dane.

17.09.2015 17:01:16 :	Time now: 17.09.2015 17:01:16.

17.09.2015 17:01:16 :	Pobrano dane.

17.09.2015 17:01:17 :	Time now: 17.09.2015 17:01:17.

17.09.2015 17:01:17 :	Pobrano dane.

17.09.2015 17:01:18 :	Time now: 17.09.2015 17:01:18.

17.09.2015 17:01:18 :	Pobrano dane.

17.09.2015 17:01:19 :	Time now: 17.09.2015 17:01:19.

17.09.2015 17:01:19 :	Pobrano dane.

17.09.2015 17:01:20 :	Time now: 17.09.2015 17:01:20.

17.09.2015 17:01:20 :	Pobrano dane.

17.09.2015 17:01:21 :	Time now: 17.09.2015 17:01:21.

17.09.2015 17:01:21 :	Pobrano dane.

17.09.2015 17:01:22 :	Time now: 17.09.2015 17:01:22.

17.09.2015 17:01:22 :	Pobrano dane.

